
./octez-client --protocol PtParisAeco71sYvYgfnVPb4rRJe6zgzYRDS5U8t5ednSRPUFN5 --mode mockup --no-base-dir-warnings run script michelson_test_scripts/opcodes/set_cdr.tz on storage '(Pair "hello" 500)' and input 3 --level 1 --trace-stack
storage
  (Pair "hello" 3)
emitted operations
  
big_map diff
  
trace
  - location: 9 (just consumed gas: 10.182)
    [ (Pair 3 "hello" 500) ]
  - location: 9 (just consumed gas: 0.010)
    [ (Pair 3 "hello" 500)
      (Pair 3 "hello" 500) ]
  - location: 10 (just consumed gas: 0.010)
    [ (Pair "hello" 500)
      (Pair 3 "hello" 500) ]
  - location: 11 (just consumed gas: 0.010)
    [ (Pair 3 "hello" 500) ]
  - location: 13 (just consumed gas: 0.010)
    [ 3 ]
  - location: 11 (just consumed gas: 0.035)
    [ (Pair "hello" 500)
      3 ]
  - location: 15 (just consumed gas: 0.010)
    [ (Pair "hello" 500)
      (Pair "hello" 500)
      3 ]
  - location: 16 (just consumed gas: 0.010)
    [ 500
      (Pair "hello" 500)
      3 ]
  - location: 17 (just consumed gas: 0.010)
    [ (Pair "hello" 500)
      3 ]
  - location: 18 (just consumed gas: 0.010)
    [ "hello"
      3 ]
  - location: 19 (just consumed gas: 0.010)
    [ (Pair "hello" 3) ]
  - location: 20 (just consumed gas: 0.010)
    [ {}
      (Pair "hello" 3) ]
  - location: 22 (just consumed gas: 0.010)
    [ (Pair {} "hello" 3) ]

