
./octez-client --protocol PtParisAeco71sYvYgfnVPb4rRJe6zgzYRDS5U8t5ednSRPUFN5 --mode mockup --no-base-dir-warnings run script michelson_test_scripts/opcodes/if.tz on storage None and input True --level 1 --trace-stack
storage
  (Some True)
emitted operations
  
big_map diff
  
trace
  - location: 8 (just consumed gas: 7.179)
    [ (Pair True None) ]
  - location: 8 (just consumed gas: 0.010)
    [ True ]
  - location: 9 (just consumed gas: 0.010)
    [  ]
  - location: 11 (just consumed gas: 0.010)
    [ True ]
  - location: 9 (just consumed gas: 0.025)
    [ True ]
  - location: 18 (just consumed gas: 0.010)
    [ (Some True) ]
  - location: 19 (just consumed gas: 0.010)
    [ {}
      (Some True) ]
  - location: 21 (just consumed gas: 0.010)
    [ (Pair {} (Some True)) ]

