
./octez-client --protocol PtParisAeco71sYvYgfnVPb4rRJe6zgzYRDS5U8t5ednSRPUFN5 --mode mockup --no-base-dir-warnings run script michelson_test_scripts/opcodes/slice.tz on storage 'Some "Foo"' and input 'Pair 0 0' --level 1 --trace-stack
storage
  (Some "")
emitted operations
  
big_map diff
  
trace
  - location: 10 (just consumed gas: 9.166)
    [ (Pair (Pair 0 0) (Some "Foo")) ]
  - location: 10 (just consumed gas: 0.010)
    [ (Pair 0 0)
      (Some "Foo") ]
  - location: 11 (just consumed gas: 0.010)
    [ (Some "Foo")
      (Pair 0 0) ]
  - location: 13 (just consumed gas: 0.010)
    [ "Foo"
      (Pair 0 0) ]
  - location: 19 (just consumed gas: 0.010)
    [ (Pair 0 0)
      "Foo" ]
  - location: 20 (just consumed gas: 0.010)
    [ 0
      0
      "Foo" ]
  - location: 21 (just consumed gas: 0.026)
    [ (Some "") ]
  - location: 13 (just consumed gas: 0.025)
    [ (Some "") ]
  - location: 22 (just consumed gas: 0.010)
    [ {}
      (Some "") ]
  - location: 24 (just consumed gas: 0.010)
    [ (Pair {} (Some "")) ]

