
./octez-client --protocol PtParisAeco71sYvYgfnVPb4rRJe6zgzYRDS5U8t5ednSRPUFN5 --mode mockup --no-base-dir-warnings run script michelson_test_scripts/opcodes/map_mem_string.tz on storage '(Pair { Elt "bar" 4 ; Elt "foo" 11 } None)' and input '"bar"' --level 1 --trace-stack
storage
  (Pair { Elt "bar" 4 ; Elt "foo" 11 } (Some True))
emitted operations
  
big_map diff
  
trace
  - location: 12 (just consumed gas: 9.824)
    [ (Pair "bar" { Elt "bar" 4 ; Elt "foo" 11 } None) ]
  - location: 12 (just consumed gas: 0.010)
    [ "bar"
      (Pair { Elt "bar" 4 ; Elt "foo" 11 } None) ]
  - location: 13 (just consumed gas: 0.010)
    [ (Pair { Elt "bar" 4 ; Elt "foo" 11 } None) ]
  - location: 15 (just consumed gas: 0.010)
    [ { Elt "bar" 4 ; Elt "foo" 11 } ]
  - location: 16 (just consumed gas: 0.010)
    [ { Elt "bar" 4 ; Elt "foo" 11 }
      { Elt "bar" 4 ; Elt "foo" 11 } ]
  - location: 13 (just consumed gas: 0.035)
    [ "bar"
      { Elt "bar" 4 ; Elt "foo" 11 }
      { Elt "bar" 4 ; Elt "foo" 11 } ]
  - location: 17 (just consumed gas: 0.045)
    [ True
      { Elt "bar" 4 ; Elt "foo" 11 } ]
  - location: 18 (just consumed gas: 0.010)
    [ (Some True)
      { Elt "bar" 4 ; Elt "foo" 11 } ]
  - location: 19 (just consumed gas: 0.010)
    [ { Elt "bar" 4 ; Elt "foo" 11 }
      (Some True) ]
  - location: 20 (just consumed gas: 0.010)
    [ (Pair { Elt "bar" 4 ; Elt "foo" 11 } (Some True)) ]
  - location: 21 (just consumed gas: 0.010)
    [ {}
      (Pair { Elt "bar" 4 ; Elt "foo" 11 } (Some True)) ]
  - location: 23 (just consumed gas: 0.010)
    [ (Pair {} { Elt "bar" 4 ; Elt "foo" 11 } (Some True)) ]

