
./octez-client --protocol PtParisAeco71sYvYgfnVPb4rRJe6zgzYRDS5U8t5ednSRPUFN5 --mode mockup --no-base-dir-warnings run script michelson_test_scripts/opcodes/tez_add_sub.tz on storage None and input '(Pair 2310000 1010000)' --level 1 --trace-stack
storage
  (Some (Pair 3320000 1300000))
emitted operations
  
big_map diff
  
trace
  - location: 12 (just consumed gas: 16.709)
    [ (Pair (Pair 2310000 1010000) None) ]
  - location: 12 (just consumed gas: 0.010)
    [ (Pair 2310000 1010000) ]
  - location: 13 (just consumed gas: 0.010)
    [ (Pair 2310000 1010000)
      (Pair 2310000 1010000) ]
  - location: 14 (just consumed gas: 0.010)
    [ (Pair 2310000 1010000)
      (Pair 2310000 1010000)
      (Pair 2310000 1010000) ]
  - location: 15 (just consumed gas: 0.010)
    [ 2310000
      (Pair 2310000 1010000)
      (Pair 2310000 1010000) ]
  - location: 16 (just consumed gas: 0.010)
    [ (Pair 2310000 1010000)
      (Pair 2310000 1010000) ]
  - location: 18 (just consumed gas: 0.010)
    [ 1010000
      (Pair 2310000 1010000) ]
  - location: 16 (just consumed gas: 0.035)
    [ 2310000
      1010000
      (Pair 2310000 1010000) ]
  - location: 19 (just consumed gas: 0.020)
    [ 3320000
      (Pair 2310000 1010000) ]
  - location: 20 (just consumed gas: 0.010)
    [ (Pair 2310000 1010000) ]
  - location: 22 (just consumed gas: 0.010)
    [ (Pair 2310000 1010000)
      (Pair 2310000 1010000) ]
  - location: 23 (just consumed gas: 0.010)
    [ 2310000
      (Pair 2310000 1010000) ]
  - location: 24 (just consumed gas: 0.010)
    [ (Pair 2310000 1010000) ]
  - location: 26 (just consumed gas: 0.010)
    [ 1010000 ]
  - location: 24 (just consumed gas: 0.035)
    [ 2310000
      1010000 ]
  - location: 27 (just consumed gas: 0.015)
    [ (Some 1300000) ]
  - location: 29 (just consumed gas: 0.010)
    [ 1300000 ]
  - location: 29 (just consumed gas: 0.025)
    [ 1300000 ]
  - location: 20 (just consumed gas: 0.035)
    [ 3320000
      1300000 ]
  - location: 35 (just consumed gas: 0.010)
    [ (Pair 3320000 1300000) ]
  - location: 36 (just consumed gas: 0.010)
    [ (Some (Pair 3320000 1300000)) ]
  - location: 37 (just consumed gas: 0.010)
    [ {}
      (Some (Pair 3320000 1300000)) ]
  - location: 39 (just consumed gas: 0.010)
    [ (Pair {} (Some (Pair 3320000 1300000))) ]

