
./octez-client --protocol PtParisAeco71sYvYgfnVPb4rRJe6zgzYRDS5U8t5ednSRPUFN5 --mode mockup --no-base-dir-warnings run script michelson_test_scripts/opcodes/bls12_381_fr_z_nat.tz on storage 0x0100000000000000000000000000000000000000000000000000000000000000 and input 0 --level 1 --trace-stack
storage
  0x0000000000000000000000000000000000000000000000000000000000000000
emitted operations
  
big_map diff
  
trace
  - location: 7 (just consumed gas: 4.278)
    [ (Pair 0 0x0100000000000000000000000000000000000000000000000000000000000000) ]
  - location: 7 (just consumed gas: 0.010)
    [ 0
      0x0100000000000000000000000000000000000000000000000000000000000000 ]
  - location: 8 (just consumed gas: 0.265)
    [ 0x0000000000000000000000000000000000000000000000000000000000000000 ]
  - location: 9 (just consumed gas: 0.010)
    [ {}
      0x0000000000000000000000000000000000000000000000000000000000000000 ]
  - location: 11 (just consumed gas: 0.010)
    [ (Pair {} 0x0000000000000000000000000000000000000000000000000000000000000000) ]

