
./octez-client --protocol PtParisAeco71sYvYgfnVPb4rRJe6zgzYRDS5U8t5ednSRPUFN5 --mode mockup --no-base-dir-warnings run script michelson_test_scripts/opcodes/and_logical_1.tz on storage False and input '(Pair True False)' --level 1 --trace-stack
storage
  False
emitted operations
  
big_map diff
  
trace
  - location: 9 (just consumed gas: 5.330)
    [ (Pair (Pair True False) False) ]
  - location: 9 (just consumed gas: 0.010)
    [ (Pair True False) ]
  - location: 10 (just consumed gas: 0.010)
    [ True
      False ]
  - location: 11 (just consumed gas: 0.010)
    [ False ]
  - location: 12 (just consumed gas: 0.010)
    [ {}
      False ]
  - location: 14 (just consumed gas: 0.010)
    [ (Pair {} False) ]

