
./octez-client --protocol PtParisAeco71sYvYgfnVPb4rRJe6zgzYRDS5U8t5ednSRPUFN5 --mode mockup --no-base-dir-warnings run script michelson_test_scripts/opcodes/comb-set.tz on storage '(Pair 1 4 2 Unit)' and input Unit --level 1 --trace-stack
storage
  (Pair 2 12 8 Unit)
emitted operations
  
big_map diff
  
trace
  - location: 11 (just consumed gas: 12.261)
    [ (Pair Unit 1 4 2 Unit) ]
  - location: 11 (just consumed gas: 0.010)
    [ (Pair 1 4 2 Unit) ]
  - location: 12 (just consumed gas: 0.010)
    [ 2
      (Pair 1 4 2 Unit) ]
  - location: 15 (just consumed gas: 0.031)
    [ (Pair 2 4 2 Unit) ]
  - location: 17 (just consumed gas: 0.010)
    [ 12
      (Pair 2 4 2 Unit) ]
  - location: 20 (just consumed gas: 0.033)
    [ (Pair 2 12 2 Unit) ]
  - location: 22 (just consumed gas: 0.010)
    [ 8
      (Pair 2 12 2 Unit) ]
  - location: 25 (just consumed gas: 0.036)
    [ (Pair 2 12 8 Unit) ]
  - location: 27 (just consumed gas: 0.010)
    [ Unit
      (Pair 2 12 8 Unit) ]
  - location: 28 (just consumed gas: 0.037)
    [ (Pair 2 12 8 Unit) ]
  - location: 30 (just consumed gas: 0.010)
    [ {}
      (Pair 2 12 8 Unit) ]
  - location: 32 (just consumed gas: 0.010)
    [ (Pair {} 2 12 8 Unit) ]

