
./octez-client --protocol PtParisAeco71sYvYgfnVPb4rRJe6zgzYRDS5U8t5ednSRPUFN5 --mode mockup --no-base-dir-warnings run script michelson_test_scripts/opcodes/pair_id.tz on storage None and input '(Pair True False)' --level 1 --trace-stack
storage
  (Some (Pair True False))
emitted operations
  
big_map diff
  
trace
  - location: 12 (just consumed gas: 5.283)
    [ (Pair (Pair True False) None) ]
  - location: 12 (just consumed gas: 0.010)
    [ (Pair True False) ]
  - location: 13 (just consumed gas: 0.010)
    [ (Some (Pair True False)) ]
  - location: 14 (just consumed gas: 0.010)
    [ {}
      (Some (Pair True False)) ]
  - location: 16 (just consumed gas: 0.010)
    [ (Pair {} (Some (Pair True False))) ]

