
./octez-client --protocol PtParisAeco71sYvYgfnVPb4rRJe6zgzYRDS5U8t5ednSRPUFN5 --mode mockup --no-base-dir-warnings run script michelson_test_scripts/opcodes/lsl_bytes_016.tz on storage Unit and input Unit --level 1 --trace-stack
storage
  Unit
emitted operations
  
big_map diff
  
trace
  - location: 7 (just consumed gas: 35.762)
    [ (Pair Unit Unit) ]
  - location: 7 (just consumed gas: 0.010)
    [  ]
  - location: 8 (just consumed gas: 0.010)
    [ 0 ]
  - location: 11 (just consumed gas: 0.010)
    [ 0x06
      0 ]
  - location: 14 (just consumed gas: 0.065)
    [ 0x06 ]
  - location: 15 (just consumed gas: 0.010)
    [ 0x06
      0x06 ]
  - location: 20 (just consumed gas: 0.035)
    [ 0 ]
  - location: 21 (just consumed gas: 0.010)
    [ True ]
  - location: 22 (just consumed gas: 0.010)
    [  ]
  - location: 22 (just consumed gas: 0.025)
    [  ]
  - location: 28 (just consumed gas: 0.010)
    [ 1 ]
  - location: 31 (just consumed gas: 0.010)
    [ 0x06
      1 ]
  - location: 34 (just consumed gas: 0.065)
    [ 0x000c ]
  - location: 35 (just consumed gas: 0.010)
    [ 0x000c
      0x000c ]
  - location: 40 (just consumed gas: 0.035)
    [ 0 ]
  - location: 41 (just consumed gas: 0.010)
    [ True ]
  - location: 42 (just consumed gas: 0.010)
    [  ]
  - location: 42 (just consumed gas: 0.025)
    [  ]
  - location: 48 (just consumed gas: 0.010)
    [ 8 ]
  - location: 51 (just consumed gas: 0.010)
    [ 0x06
      8 ]
  - location: 54 (just consumed gas: 0.065)
    [ 0x0600 ]
  - location: 55 (just consumed gas: 0.010)
    [ 0x0600
      0x0600 ]
  - location: 60 (just consumed gas: 0.035)
    [ 0 ]
  - location: 61 (just consumed gas: 0.010)
    [ True ]
  - location: 62 (just consumed gas: 0.010)
    [  ]
  - location: 62 (just consumed gas: 0.025)
    [  ]
  - location: 68 (just consumed gas: 0.010)
    [ 1 ]
  - location: 71 (just consumed gas: 0.010)
    [ 0x0006
      1 ]
  - location: 74 (just consumed gas: 0.066)
    [ 0x00000c ]
  - location: 75 (just consumed gas: 0.010)
    [ 0x00000c
      0x00000c ]
  - location: 80 (just consumed gas: 0.035)
    [ 0 ]
  - location: 81 (just consumed gas: 0.010)
    [ True ]
  - location: 82 (just consumed gas: 0.010)
    [  ]
  - location: 82 (just consumed gas: 0.025)
    [  ]
  - location: 88 (just consumed gas: 0.010)
    [ Unit ]
  - location: 89 (just consumed gas: 0.010)
    [ {}
      Unit ]
  - location: 91 (just consumed gas: 0.010)
    [ (Pair {} Unit) ]

