
./octez-client --protocol PtParisAeco71sYvYgfnVPb4rRJe6zgzYRDS5U8t5ednSRPUFN5 --mode mockup --no-base-dir-warnings run script michelson_test_scripts/opcodes/and.tz on storage None and input '(Pair False True)' --level 1 --trace-stack
storage
  (Some False)
emitted operations
  
big_map diff
  
trace
  - location: 10 (just consumed gas: 7.431)
    [ (Pair (Pair False True) None) ]
  - location: 10 (just consumed gas: 0.010)
    [ (Pair False True) ]
  - location: 11 (just consumed gas: 0.010)
    [ False
      True ]
  - location: 12 (just consumed gas: 0.010)
    [ False ]
  - location: 13 (just consumed gas: 0.010)
    [ (Some False) ]
  - location: 14 (just consumed gas: 0.010)
    [ {}
      (Some False) ]
  - location: 16 (just consumed gas: 0.010)
    [ (Pair {} (Some False)) ]
  - location: 17 (just consumed gas: 0.010)
    [ {}
      (Some False) ]
  - location: 18 (just consumed gas: 0.010)
    [ (Pair {} (Some False)) ]

